\relax 
\citation{wan11b}
\citation{wan11a}
\citation{xu11}
\citation{gul15}
\citation{mei10}
\citation{wan11a}
\citation{mye11}
\citation{cho11}
\citation{ste09}
\@writefile{toc}{\contentsline {section}{\numberline {1}Introduction}{1}}
\@writefile{toc}{\contentsline {section}{\numberline {2}Literature Review}{1}}
\newlabel{sec:literature}{{2}{1}}
\@writefile{toc}{\contentsline {subsection}{\numberline {2.1}Global methods}{1}}
\@writefile{toc}{\contentsline {paragraph}{Skeletonization based method}{1}}
\citation{seth95}
\citation{ben11}
\citation{law08}
\citation{fre91}
\citation{ben11}
\citation{mei03}
\citation{rou13}
\citation{chen15}
\citation{gon11}
\citation{fre91}
\citation{mye11}
\citation{fua12}
\citation{fua12}
\@writefile{toc}{\contentsline {paragraph}{Minimal path based method}{2}}
\@writefile{toc}{\contentsline {paragraph}{Graph based method}{2}}
\citation{mye11}
\citation{bas11}
\citation{yua09}
\citation{cha01}
\citation{li05}
\citation{hri09}
\citation{mis11}
\citation{kas88}
\citation{xup98}
\citation{wan11a}
\citation{kas88}
\citation{uns00}
\citation{uhl14}
\@writefile{toc}{\contentsline {subsection}{\numberline {2.2}Local methods}{3}}
\@writefile{toc}{\contentsline {paragraph}{Sequential tracing based method}{3}}
\@writefile{toc}{\contentsline {paragraph}{Deformable model based method}{3}}
\@writefile{toc}{\contentsline {subparagraph}{Geometric deformable models}{3}}
\@writefile{toc}{\contentsline {subparagraph}{Parametric deformable models}{3}}
\citation{yan06}
\citation{xie08}
\citation{xu11}
\citation{wan11a}
\citation{wan11b}
\citation{li07}
\citation{mis11}
\citation{par03}
\citation{xup98}
\citation{kas88}
\citation{ami90}
\citation{wil92}
\citation{kum06}
\@writefile{toc}{\contentsline {subsection}{\numberline {2.3}Machine Learning methods}{4}}
\@writefile{toc}{\contentsline {section}{\numberline {3}Formulation}{4}}
\citation{wil92}
\citation{wil92}
\citation{law08}
\@writefile{toc}{\contentsline {subsection}{\numberline {3.1}Association Potential}{5}}
\newlabel{eq:Eshape}{{3}{5}}
\newlabel{eq:Eapp}{{5}{5}}
\@writefile{toc}{\contentsline {subsection}{\numberline {3.2}Interaction Potential}{6}}
\newlabel{eq:angleLimit}{{6}{6}}
\newlabel{eq:Eatt}{{9}{6}}
\citation{swa90}
\citation{wil92}
\citation{mye11}
\citation{swa90}
\citation{ami90}
\citation{wil92}
\@writefile{toc}{\contentsline {section}{\numberline {4}Inference}{7}}
\@writefile{toc}{\contentsline {subsection}{\numberline {4.1}HCF for snake population}{7}}
\newlabel{sec:HCF}{{4.1}{7}}
\newlabel{eq:stability}{{10}{7}}
\@writefile{toc}{\contentsline {subsection}{\numberline {4.2}Greedy Algorithm for individual snake}{7}}
\citation{can05}
\citation{cho11}
\citation{xu11}
\citation{fran98}
\citation{xup98}
\@writefile{toc}{\contentsline {section}{\numberline {5}Implementation}{8}}
\citation{gul15}
\citation{kas88}
\citation{seth95}
\citation{tsi95}
\citation{yat05}
\providecommand*\caption@xref[2]{\@setref\relax\@undefined{#1}}
\newlabel{fig:curvelet}{{1b}{9}}
\newlabel{sub@fig:curvelet}{{b}{9}}
\newlabel{fig:log}{{1c}{9}}
\newlabel{sub@fig:log}{{c}{9}}
\newlabel{fig:bgsub}{{1d}{9}}
\newlabel{sub@fig:bgsub}{{d}{9}}
\newlabel{fig:region}{{1e}{9}}
\newlabel{sub@fig:region}{{e}{9}}
\newlabel{fig:oof}{{1f}{9}}
\newlabel{sub@fig:oof}{{f}{9}}
\newlabel{fig:candidate}{{1g}{9}}
\newlabel{sub@fig:candidate}{{g}{9}}
\newlabel{fig:seeds}{{1h}{9}}
\newlabel{sub@fig:seeds}{{h}{9}}
\@writefile{lof}{\contentsline {figure}{\numberline {1}{\ignorespaces shows preprocessing and seed point detection steps\relax }}{9}}
\@writefile{toc}{\contentsline {section}{\numberline {6}Complexity}{9}}
\citation{wil92}
\citation{swa90}
\citation{gul15}
\citation{diadem11a}
\citation{gul15}
\citation{cho11}
\citation{wan11a}
\citation{diadem11b}
\citation{gul15}
\citation{gul15}
\citation{gul15}
\citation{gul15}
\citation{gul15}
\citation{gul15}
\citation{gul15}
\citation{diadem11b}
\citation{gul15}
\@writefile{toc}{\contentsline {section}{\numberline {7}Results}{10}}
\@writefile{lot}{\contentsline {table}{\numberline {1}{\ignorespaces DIADEM score and F1-score. The best scores of each stack are shown in bold.\relax }}{11}}
\newlabel{tab:diadem_f1}{{1}{11}}
\@writefile{lot}{\contentsline {table}{\numberline {2}{\ignorespaces Precision and Recall\relax }}{11}}
\newlabel{tab:precision_recall}{{2}{11}}
\@writefile{lof}{\contentsline {figure}{\numberline {2}{\ignorespaces shows the ground truth trace of image stack 72413\_h05 (first row), results from different algorithms (second row), results at different iterations of our method (last row).\relax }}{12}}
\newlabel{fig:sample1}{{2}{12}}
\bibstyle{plain}
\bibcite{ami90}{1}
\bibcite{bas11}{2}
\bibcite{ben11}{3}
\bibcite{uns00}{4}
\bibcite{diadem11a}{5}
\@writefile{lof}{\contentsline {figure}{\numberline {3}{\ignorespaces shows the ground truth trace of image stack 72513\_h1 (first row), results from different algorithms (second row), results at different iterations of our method (last row).\relax }}{13}}
\newlabel{fig:sample2}{{3}{13}}
\bibcite{can05}{6}
\bibcite{cha01}{7}
\bibcite{chen15}{8}
\bibcite{cho11}{9}
\bibcite{fran98}{10}
\bibcite{fre91}{11}
\bibcite{diadem11b}{12}
\@writefile{lof}{\contentsline {figure}{\numberline {4}{\ignorespaces shows two main issues of our method, gap over inhomogeneity (Left) and false jumping (Right)\relax }}{14}}
\newlabel{fig:issue}{{4}{14}}
\bibcite{gul15}{13}
\bibcite{hri09}{14}
\bibcite{kas88}{15}
\bibcite{kum06}{16}
\bibcite{law08}{17}
\bibcite{li07}{18}
\bibcite{li05}{19}
\bibcite{mei10}{20}
\bibcite{mei03}{21}
\bibcite{mis11}{22}
\bibcite{par03}{23}
\bibcite{rou13}{24}
\bibcite{seth95}{25}
\bibcite{swa90}{26}
\bibcite{tsi95}{27}
\bibcite{fua12}{28}
\bibcite{gon11}{29}
\bibcite{uhl14}{30}
\bibcite{ste09}{31}
\bibcite{wan11b}{32}
\bibcite{wan11a}{33}
\bibcite{wil92}{34}
\bibcite{xie08}{35}
\bibcite{xup98}{36}
\bibcite{xu11}{37}
\bibcite{yan06}{38}
\bibcite{yat05}{39}
\bibcite{yua09}{40}
\bibcite{mye11}{41}
